// Mem file initialization records.
//
// SW Build 2552052 on Fri May 24 14:49:42 MDT 2019
// Vivado v2019.1 (64-bit)
// Copyright 1986-2019 Xilinx, Inc. All Rights Reserved.
// Created on Friday September 10, 2021 - 03:38:00 pm, from:
//
//     Map file     - C:\Users\root\Documents\vavada\vavada.srcs\sources_1\bd\design_1\design_1.bmm
//     Data file(s) - C:/Users/root/Documents/vavada/vavada.sdk/driwer/Debug/driwer.elf
//
// Address space 'test_design_1_i_microblaze_0.test_design_1_i_microblaze_0_local_memory_lmb_bram_8K_2_ADDR_SPACE', bit lane [31:0].
//
// Bus width = 32 bits, number of bus blocks = 1.

@00000000
    B0000000 B8080050 B0000000 B8080630 B0000000 B8080744 00000000 00000000
    B0000000 B808037C

@00000014
    B0000000 31A00960 B0000000 30400860 B0000000 30201560 B0000000 B9F40260
    80000000 B0000000 B9F40308 30A30000 B8000000 B0000000 30A0095C B0000000
    3060095C 88632800 BC03002C B0000000 30600000 BC030020 3021FFE4 F9E10000
    99FC1800 80000000 E9E10000 B60F0008 3021001C B60F0008 80000000 B0000000
    30A0095C B0000000 3060095C 14651800 10801800 90830001 90840001 10C02000
    90C40041 90C60041 90C60041 90C60041 90C60041 90C60041 90C60041 90C60041
    90C60041 90C60041 90C60041 90C60041 90C60041 90C60041 90C60041 90C60041
    90C60041 90C60041 90C60041 90C60041 90C60041 90C60041 90C60041 90C60041
    90C60041 90C60041 90C60041 90C60041 90C60041 90C60041 90C60041 10C62000
    90C60001 BC06002C B0000000 30600000 BC030020 3021FFE4 F9E10000 99FC1800
    80000000 E9E10000 B60F0008 3021001C B60F0008 80000000 B0000000 E0600960
    BC2300D0 B0000000 30800858 B0000000 30A00854 B0000000 E8600964 3021FFDC
    14852000 FA61001C FAC10020 12602000 92640001 92730001 F9E10000 3273FFFF
    B0000000 32C00854 16531803 BEB20038 30630001 10831800 10842000 C884B000
    B0000000 F8600964 99FC2000 80000000 B0000000 E8600964 16531803 BE52FFD8
    30630001 B9F4FE50 80000000 B0000000 30600000 BE030020 E9E10000 B0000000
    30A0095C B000FFFF B9F4FDA8 80000000 E9E10000 EA61001C EAC10020 30600001
    B0000000 F0600960 B60F0008 30210024 B60F0008 80000000 B0000000 30600000
    3021FFE4 BE030024 F9E10000 B0000000 30C00968 B0000000 30A0095C B000FFFF
    B9F4FD50 80000000 B9F4FE14 80000000 E9E10000 B60F0008 3021001C 2021FFD8
    F9E10000 B0000000 20C00960 B0000000 20E00960 06463800 BC720014 F8060000
    20C60004 06463800 BC92FFF4 B0000000 20C00960 B0000000 20E00980 06463800
    BC720014 F8060000 20C60004 06463800 BC92FFF4 B0000000 B9F40314 80000000
    B0000000 B9F404BC 80000000 20C00000 20E00000 B0000000 B9F403B0 20A00000
    32630000 B0000000 B9F404D4 80000000 B0000000 B9F402D0 80000000 C9E10000
    30730000 B60F0008 20210028 B8000000 3021FFDC F9E10000 FA610020 12610000
    F8B3001C 10C00000 E8B3001C B0000000 B9F40048 80000000 B0000000 E860085C
    E8630028 BC030024 B0000000 E860085C E8630028 B0000000 E880085C 10A40000
    99FC1800 80000000 E8B3001C B000FFFF B9F4FCA0 80000000 3021FFC4 F9E10000
    FA61002C FAC10030 FAE10034 FB010038 12610000 F8B30040 F8D30044 B0000000
    E860085C EAC30048 B0000000 E860085C 30630048 F873001C B80001D4 EB160088
    E8760004 32E3FFFF B8000160 30800001 A657001F 10602000 BE120014 10630000
    3252FFFF BE32FFFC 10631800 F8730020 E8730044 BC030028 BC180120 30770020
    10631800 10631800 10781800 E8630000 E8930044 88641800 BC230100 30770002
    10631800 10631800 10761800 E8630000 F8730024 E8760004 3063FFFF 88771800
    BC230014 E8760004 3063FFFF F8760004 B8000018 30770002 10631800 10631800
    10761800 F8030000 E8730024 BC0300B4 E8760004 F8730028 BC180014 E8980100
    E8730020 84641800 BC230014 E8730024 99FC1800 80000000 B800005C E8980104
    E8730020 84641800 BC23002C 1077B800 10631800 10781800 E8830000 E8730024
    10C40000 E8B30040 99FC1800 80000000 B8000024 1077B800 10631800 10781800
    E8830000 E8730024 10A40000 99FC1800 80000000 E8760004 E8930028 88641800
    BC23FE9C E873001C E8630000 88761800 BC030014 B800FE88 80000000 B8000008
    80000000 32F7FFFF BCB7FEA4 B0000000 30600000 BC030060 E8760004 BC230048
    E8760000 BC030040 E8960000 E873001C F8830000 BC180014 10B80000 B000FFFF
    B9F4FA30 80000000 10B60000 B000FFFF B9F4FA20 80000000 E873001C EAC30000
    B800000C FAD3001C EAD60000 BC36FE30 B8000008 80000000 80000000 E9E10000
    10330000 EA61002C EAC10030 EAE10034 EB010038 3021003C B60F0008 80000000
    98085800 B60F0008 80000000 B60F0008 80000000 3021FFF8 FA610004 B0000000
    32600850 F9E10000 E873FFFC A883FFFF BE04001C 3273FFFC 99FC1800 3273FFFC
    E8730000 A883FFFF BC24FFF0 E9E10000 EA610004 B60F0008 30210008 3021FFF4
    FA610008 12610000 F8B30004 E8730004 E8630000 10330000 EA610008 3021000C
    B60F0008 80000000 3021FFEC FA610010 12610000 F8B30008 F8D3000C E8730008
    F8730004 E8730004 E893000C F8830000 80000000 10330000 EA610010 30210014
    B60F0008 80000000 3021FFF4 F9E10000 FA610008 12610000 F8130004 B0004000
    30A00008 B000FFFF B9F4FF74 80000000 F8730004 E8730004 10C30000 B0004000
    30A00000 B000FFFF B9F4FF80 80000000 B8000000 3021FFAC F9E10000 F8210020
    F8610024 F8810028 F8A1002C F8C10030 F8E10034 F9010038 F921003C F9410040
    B0000000 30600954 F9610044 F9810048 FA21004C 95608001 E8830000 E8A30004
    FA410050 F961001C 99FC2000 80000000 E9E10000 E961001C E8210020 940BC001
    E8610024 E8810028 E8A1002C E8C10030 E8E10034 E9010038 E921003C E9410040
    E9610044 E9810048 EA21004C EA410050 B62E0000 30210054 B60F0008 80000000
    3021FFF0 D9E00800 3160FFFF 940BC802 31600000 940BC800 B000FFFF B9F4FA7C
    80000000 B000FFFF B9F4FE2C 80000000 C9E00800 B60F0008 30210010 3021FFF0
    D9E00800 B000FFFF B9F4F970 80000000 C9E00800 B60F0008 30210010 FFFFFFFF
    00000000 FFFFFFFF 00000000 00000860 00000000 00000000 00000000 00000000
    00000000 00000000 00000000 00000000 00000000 00000000 00000000 00000000
    00000000 00000000 00000000 00000000 00000000 00000000 00000000 00000000
    00000000 00000000 00000000 00000000 00000000 00000000 00000000 00000000
    00000000 00000000 00000000 00000000 00000000 00000000 00000000 00000000
    00000000 00000000 00000000 00000000 00000000 00000000 00000000 00000000
    00000000 00000000 00000000 00000000 00000000 00000000 00000000 00000000
    00000000 00000000 00000000 00000000 00000000 00000000 00000000 00000000
    00000860 000007E8 00000000
