#-----------------------------------------------------------
# Webtalk v2019.1 (64-bit)
# SW Build 2552052 on Fri May 24 14:49:42 MDT 2019
# IP Build 2548770 on Fri May 24 18:01:18 MDT 2019
# Start of session at: Fri Sep 10 14:58:24 2021
# Process ID: 5576
# Current directory: C:/Users/root/Documents/vavada/vavada.sim/sim_1/behav/xsim
# Command line: wbtcv.exe -mode batch -source C:/Users/root/Documents/vavada/vavada.sim/sim_1/behav/xsim/xsim.dir/dev_1_behav/webtalk/xsim_webtalk.tcl -notrace
# Log file: C:/Users/root/Documents/vavada/vavada.sim/sim_1/behav/xsim/webtalk.log
# Journal file: C:/Users/root/Documents/vavada/vavada.sim/sim_1/behav/xsim\webtalk.jou
#-----------------------------------------------------------
source C:/Users/root/Documents/vavada/vavada.sim/sim_1/behav/xsim/xsim.dir/dev_1_behav/webtalk/xsim_webtalk.tcl -notrace
INFO: [Common 17-206] Exiting Webtalk at Fri Sep 10 14:58:24 2021...
