<?xml version="1.0" encoding="UTF-8"?>
<session version="1.0">
<refactoring comment="Delete resource &apos;driwer/src/main.c&apos;" deleteContents="false" description="Delete resource &apos;driwer/src/main.c&apos;" element1="/driwer/src/main.c" flags="7" id="org.eclipse.ltk.core.refactoring.delete.resources" resources="1" stamp="1631273436717"/>
</session>