verilog xil_defaultlib --include "../../../../vavada.srcs/sources_1/bd/design_1/ipshared/c923" --include "../../../../vavada.srcs/sources_1/bd/design_1/ipshared/ec67/hdl" \
"../../../bd/design_1/ip/design_1_lmb_bram_0/sim/design_1_lmb_bram_0.v" \
"../../../bd/design_1/ip/design_1_clk_wiz_1_0/design_1_clk_wiz_1_0_clk_wiz.v" \
"../../../bd/design_1/ip/design_1_clk_wiz_1_0/design_1_clk_wiz_1_0.v" \
"../../../bd/design_1/sim/design_1.v" \
"../../../bd/design_1/ip/design_1_xbar_0/sim/design_1_xbar_0.v" \

verilog xil_defaultlib "glbl.v"

nosort
